\relax 
\providecommand\hyper@newdestlabel[2]{}
\citation{deskripsi-lapor}
\@writefile{toc}{\contentsline {chapter}{\numberline {1}\uppercase {Pendahuluan}}{1}{chapter.1}}
\@writefile{lof}{\addvspace {10\p@ }}
\@writefile{lot}{\addvspace {10\p@ }}
\@writefile{toc}{\contentsline {section}{\numberline {1.1}Latar Belakang}{1}{section.1.1}}
\@writefile{lof}{\contentsline {figure}{\numberline {1.1}{\ignorespaces Jumlah Laporan Berdasarkan Kanal Pelaporan Tahun 2015 - Oktober 2017\relax }}{2}{figure.caption.3}}
\providecommand*\caption@xref[2]{\@setref\relax\@undefined{#1}}
\newlabel{fig:laporan_per_kanal}{{1.1}{2}{Jumlah Laporan Berdasarkan Kanal Pelaporan Tahun 2015 - Oktober 2017\relax }{figure.caption.3}{}}
\@writefile{lof}{\contentsline {figure}{\numberline {1.2}{\ignorespaces Perbandingan Jumlah Laporan Keseluruhan dengan yang Tidak Valid Berdasarkan Kanal Pelaporan Tahun 2015 - Oktober 2017\relax }}{2}{figure.caption.4}}
\newlabel{fig:laporan_per_kanal_tidak_valid}{{1.2}{2}{Perbandingan Jumlah Laporan Keseluruhan dengan yang Tidak Valid Berdasarkan Kanal Pelaporan Tahun 2015 - Oktober 2017\relax }{figure.caption.4}{}}
\@writefile{toc}{\contentsline {section}{\numberline {1.2}Permasalahan}{3}{section.1.2}}
\@writefile{toc}{\contentsline {subsection}{\numberline {1.2.1}Definisi Permasalahan}{3}{subsection.1.2.1}}
\@writefile{toc}{\contentsline {subsection}{\numberline {1.2.2}Batasan Permasalahan}{3}{subsection.1.2.2}}
\@writefile{toc}{\contentsline {section}{\numberline {1.3}Tujuan dan Manfaat Penelitian}{4}{section.1.3}}
\@writefile{toc}{\contentsline {section}{\numberline {1.4}Posisi Penelitian}{4}{section.1.4}}
\@setckpt{bab1}{
\setcounter{page}{5}
\setcounter{equation}{0}
\setcounter{enumi}{2}
\setcounter{enumii}{0}
\setcounter{enumiii}{0}
\setcounter{enumiv}{0}
\setcounter{footnote}{0}
\setcounter{mpfootnote}{0}
\setcounter{part}{0}
\setcounter{chapter}{1}
\setcounter{section}{4}
\setcounter{subsection}{0}
\setcounter{subsubsection}{0}
\setcounter{paragraph}{0}
\setcounter{subparagraph}{0}
\setcounter{figure}{2}
\setcounter{table}{0}
\setcounter{Item}{2}
\setcounter{Hfootnote}{0}
\setcounter{bookmark@seq@number}{11}
\setcounter{ContinuedFloat}{0}
\setcounter{parentequation}{0}
\setcounter{AM@survey}{0}
\setcounter{float@type}{4}
\setcounter{LT@tables}{0}
\setcounter{LT@chunks}{0}
\setcounter{section@level}{1}
}
