\relax 
\providecommand\hyper@newdestlabel[2]{}
\@writefile{toc}{\contentsline {chapter}{\numberline {2}\uppercase {Studi Literatur}}{5}{chapter.2}}
\@writefile{lof}{\addvspace {10\p@ }}
\@writefile{lot}{\addvspace {10\p@ }}
\@writefile{toc}{\contentsline {section}{\numberline {2.1}Aplikasi LAPOR!{}}{5}{section.2.1}}
\@writefile{lof}{\contentsline {figure}{\numberline {2.1}{\ignorespaces Alur Kerja Sistem LAPOR!{}\relax }}{6}{figure.caption.5}}
\newlabel{fig:alur_kerja_lapor}{{2.1}{6}{Alur Kerja Sistem \lapor {}\relax }{figure.caption.5}{}}
\citation{cresswell}
\citation{cresswell}
\citation{cresswell}
\@writefile{toc}{\contentsline {section}{\numberline {2.2}Metode Kuantitatif}{7}{section.2.2}}
\citation{cresswell}
\citation{cresswell}
\citation{sarwono}
\citation{sarwono}
\citation{cresswell}
\@writefile{toc}{\contentsline {section}{\numberline {2.3}Metode Kualitatif}{9}{section.2.3}}
\@writefile{lof}{\contentsline {figure}{\numberline {2.2}{\ignorespaces Alur Analisa Data Kualitatif\relax }}{11}{figure.caption.6}}
\newlabel{fig:alur_analisa_kualitatif}{{2.2}{11}{Alur Analisa Data Kualitatif\relax }{figure.caption.6}{}}
\citation{venkatesh}
\@writefile{toc}{\contentsline {section}{\numberline {2.4}Metode \textit  {Mixed Methods}}{12}{section.2.4}}
\@writefile{lof}{\contentsline {figure}{\numberline {2.3}{\ignorespaces Jenis Penelitian \textit  {mixed methods}{}\relax }}{13}{figure.caption.7}}
\newlabel{fig:jenis_mix_methods}{{2.3}{13}{Jenis Penelitian \mixmethod {}\relax }{figure.caption.7}{}}
\citation{venkatesh}
\citation{church}
\@writefile{lot}{\contentsline {table}{\numberline {2.1}{\ignorespaces Tujuan Menggunakan \textit  {mixed methods}\relax }}{14}{table.caption.8}}
\newlabel{tab:tujuan_mixed_method}{{2.1}{14}{Tujuan Menggunakan \mixmethod \relax }{table.caption.8}{}}
\citation{church}
\citation{church}
\@writefile{toc}{\contentsline {section}{\numberline {2.5}Penelitian Terkait}{15}{section.2.5}}
\@writefile{toc}{\contentsline {subsection}{\numberline {2.5.1}Perbandingan penggunaan \textit  {Whatsapp} dan SMS}{15}{subsection.2.5.1}}
\citation{church}
\citation{adams}
\@writefile{toc}{\contentsline {subsection}{\numberline {2.5.2}Konsep \textit  {Mindless Computing}}{17}{subsection.2.5.2}}
\citation{adams}
\citation{apji}
\citation{apji}
\citation{oulasvirta}
\@writefile{toc}{\contentsline {subsection}{\numberline {2.5.3}\textit  {Smarphone} dapat membentuk kebiasaan}{18}{subsection.2.5.3}}
\citation{oulasvirta}
\citation{oulasvirta}
\citation{scherer}
\@writefile{toc}{\contentsline {subsection}{\numberline {2.5.4}Tingkat kepercayaan dalam \textit  {e-participation}}{19}{subsection.2.5.4}}
\citation{scherer}
\citation{scherer}
\citation{scherer}
\@setckpt{bab2}{
\setcounter{page}{23}
\setcounter{equation}{0}
\setcounter{enumi}{10}
\setcounter{enumii}{0}
\setcounter{enumiii}{0}
\setcounter{enumiv}{0}
\setcounter{footnote}{0}
\setcounter{mpfootnote}{0}
\setcounter{part}{0}
\setcounter{chapter}{2}
\setcounter{section}{5}
\setcounter{subsection}{4}
\setcounter{subsubsection}{0}
\setcounter{paragraph}{0}
\setcounter{subparagraph}{0}
\setcounter{figure}{3}
\setcounter{table}{1}
\setcounter{Item}{56}
\setcounter{Hfootnote}{0}
\setcounter{bookmark@seq@number}{21}
\setcounter{ContinuedFloat}{0}
\setcounter{parentequation}{0}
\setcounter{AM@survey}{0}
\setcounter{float@type}{4}
\setcounter{LT@tables}{0}
\setcounter{LT@chunks}{0}
\setcounter{section@level}{2}
}
