\relax 
\providecommand\hyper@newdestlabel[2]{}
\@writefile{toc}{\contentsline {chapter}{\numberline {3}\uppercase {Metodologi Penelitian}}{23}{chapter.3}}
\@writefile{lof}{\addvspace {10\p@ }}
\@writefile{lot}{\addvspace {10\p@ }}
\@writefile{toc}{\contentsline {section}{\numberline {3.1}Alur Pikir Penelitian}{23}{section.3.1}}
\@writefile{lof}{\contentsline {figure}{\numberline {3.1}{\ignorespaces Alur Pikir Penelitian\relax }}{23}{figure.caption.9}}
\newlabel{fig:alur_pikir_penelitian}{{3.1}{23}{Alur Pikir Penelitian\relax }{figure.caption.9}{}}
\citation{cresswell}
\citation{cresswell}
\citation{cresswell}
\@writefile{toc}{\contentsline {section}{\numberline {3.2}Rancangan Penelitian}{24}{section.3.2}}
\@writefile{lot}{\contentsline {table}{\numberline {3.1}{\ignorespaces Pertanyaan Penelitian beserta Rancangan Penelitian\relax }}{24}{table.caption.10}}
\newlabel{tab:penelitian_dan_rancangan}{{3.1}{24}{Pertanyaan Penelitian beserta Rancangan Penelitian\relax }{table.caption.10}{}}
\@writefile{toc}{\contentsline {section}{\numberline {3.3}Tahapan Penelitian}{25}{section.3.3}}
\@writefile{lof}{\contentsline {figure}{\numberline {3.2}{\ignorespaces Tahapan penelitian sekuensial eksploratori\relax }}{25}{figure.caption.11}}
\newlabel{fig:tahapan_rq1}{{3.2}{25}{Tahapan penelitian sekuensial eksploratori\relax }{figure.caption.11}{}}
\citation{cresswell}
\citation{cresswell}
\citation{cresswell}
\@writefile{lof}{\contentsline {figure}{\numberline {3.3}{\ignorespaces Tahapan penelitian observasi\relax }}{26}{figure.caption.12}}
\newlabel{fig:tahapan_rq2}{{3.3}{26}{Tahapan penelitian observasi\relax }{figure.caption.12}{}}
\@writefile{toc}{\contentsline {section}{\numberline {3.4}Instrumen Penelitian dan Pengambilan Data}{26}{section.3.4}}
\citation{cresswell}
\citation{cresswell}
\citation{huberman}
\@writefile{toc}{\contentsline {section}{\numberline {3.5}Teknik Analisis Data Penelitian}{27}{section.3.5}}
\@writefile{toc}{\contentsline {subsection}{\numberline {3.5.1}Pengolahan Data Kualitatif}{27}{subsection.3.5.1}}
\citation{sugiyono}
\@writefile{lot}{\contentsline {table}{\numberline {3.2}{\ignorespaces Kategori Kode Hasil Wawancara\relax }}{28}{table.caption.13}}
\newlabel{tab:kode_hasil_wawancara}{{3.2}{28}{Kategori Kode Hasil Wawancara\relax }{table.caption.13}{}}
\citation{cresswell}
\citation{sugiyono}
\citation{sugiyono}
\@writefile{toc}{\contentsline {subsection}{\numberline {3.5.2}Pengolahan Data Kuantitatif}{29}{subsection.3.5.2}}
\newlabel{eq:pearson}{{3.1}{29}{Pengolahan Data Kuantitatif}{equation.3.5.1}{}}
\gdef \LT@i {\LT@entry 
    {1}{132.30278pt}\LT@entry 
    {1}{131.90279pt}\LT@entry 
    {1}{131.90279pt}}
\@writefile{toc}{\contentsline {section}{\numberline {3.6}Jadwal dan Kegiatan Penelitian}{30}{section.3.6}}
\@writefile{lot}{\contentsline {table}{\numberline {3.3}{\ignorespaces Kegiatan, Indikator, dan Target Luaran Kegiatan\relax }}{30}{table.3.3}}
\newlabel{tab:jadwal_penelitian}{{3.3}{31}{Jadwal dan Kegiatan Penelitian}{table.3.3}{}}
\@setckpt{bab3}{
\setcounter{page}{32}
\setcounter{equation}{1}
\setcounter{enumi}{5}
\setcounter{enumii}{0}
\setcounter{enumiii}{0}
\setcounter{enumiv}{0}
\setcounter{footnote}{0}
\setcounter{mpfootnote}{0}
\setcounter{part}{0}
\setcounter{chapter}{3}
\setcounter{section}{6}
\setcounter{subsection}{0}
\setcounter{subsubsection}{0}
\setcounter{paragraph}{0}
\setcounter{subparagraph}{0}
\setcounter{figure}{3}
\setcounter{table}{3}
\setcounter{Item}{64}
\setcounter{Hfootnote}{0}
\setcounter{bookmark@seq@number}{30}
\setcounter{ContinuedFloat}{0}
\setcounter{parentequation}{0}
\setcounter{AM@survey}{0}
\setcounter{float@type}{4}
\setcounter{LT@tables}{1}
\setcounter{LT@chunks}{1}
\setcounter{section@level}{1}
}
