\relax 
\providecommand\hyper@newdestlabel[2]{}
\@writefile{toc}{\contentsline {chapter}{LAMPIRAN}{1}{section*.14}}
\@setckpt{markLampiran}{
\setcounter{page}{1}
\setcounter{equation}{1}
\setcounter{enumi}{5}
\setcounter{enumii}{0}
\setcounter{enumiii}{0}
\setcounter{enumiv}{11}
\setcounter{footnote}{0}
\setcounter{mpfootnote}{0}
\setcounter{part}{0}
\setcounter{chapter}{0}
\setcounter{section}{0}
\setcounter{subsection}{0}
\setcounter{subsubsection}{0}
\setcounter{paragraph}{0}
\setcounter{subparagraph}{0}
\setcounter{figure}{3}
\setcounter{table}{3}
\setcounter{Item}{64}
\setcounter{Hfootnote}{0}
\setcounter{bookmark@seq@number}{32}
\setcounter{ContinuedFloat}{0}
\setcounter{parentequation}{0}
\setcounter{AM@survey}{0}
\setcounter{float@type}{4}
\setcounter{LT@tables}{1}
\setcounter{LT@chunks}{1}
\setcounter{section@level}{1}
}
