\relax 
\providecommand\hyper@newdestlabel[2]{}
\bibcite{deskripsi-lapor}{1}
\bibcite{sarwono}{2}
\bibcite{cresswell}{3}
\bibcite{church}{4}
\bibcite{venkatesh}{5}
\bibcite{adams}{6}
\bibcite{scherer}{7}
\bibcite{apji}{8}
\bibcite{oulasvirta}{9}
\bibcite{sugiyono}{10}
\@writefile{toc}{\contentsline {chapter}{Daftar Referensi}{32}{table.3.3}}
\bibcite{huberman}{11}
\@setckpt{pustaka}{
\setcounter{page}{34}
\setcounter{equation}{1}
\setcounter{enumi}{5}
\setcounter{enumii}{0}
\setcounter{enumiii}{0}
\setcounter{enumiv}{11}
\setcounter{footnote}{0}
\setcounter{mpfootnote}{0}
\setcounter{part}{0}
\setcounter{chapter}{3}
\setcounter{section}{6}
\setcounter{subsection}{0}
\setcounter{subsubsection}{0}
\setcounter{paragraph}{0}
\setcounter{subparagraph}{0}
\setcounter{figure}{3}
\setcounter{table}{3}
\setcounter{Item}{64}
\setcounter{Hfootnote}{0}
\setcounter{bookmark@seq@number}{31}
\setcounter{ContinuedFloat}{0}
\setcounter{parentequation}{0}
\setcounter{AM@survey}{0}
\setcounter{float@type}{4}
\setcounter{LT@tables}{1}
\setcounter{LT@chunks}{1}
\setcounter{section@level}{1}
}
